%YAML 1.1
%TAG !u! tag:unity3d.com,2011:
--- !u!114 &11400000
MonoBehaviour:
  m_ObjectHideFlags: 0
  m_CorrespondingSourceObject: {fileID: 0}
  m_PrefabInstance: {fileID: 0}
  m_PrefabAsset: {fileID: 0}
  m_GameObject: {fileID: 0}
  m_Enabled: 1
  m_EditorHideFlags: 0
  m_Script: {fileID: 11500000, guid: 8ce5c186e567dd64f953150cea1a62c3, type: 3}
  m_Name: Mango
  m_EditorClassIdentifier: 
  ID: 2
  fruitName: Mango
  sprite: {fileID: 21300000, guid: 9d992338b25097641b1de9e4a1d222c4, type: 3}
